{
  "type": "FeatureCollection",
  "features": [
    {
      "type": "Feature",
      "properties": {
        "@id": "way/31304681",
        "highway": "residential",
        "lit": "yes",
        "name": "Rue Rabelais",
        "oneway": "yes",
        "source": "cadastre-dgi-fr source : Direction Générale des Impôts - Cadastre ; mise à jour : 2009",
        "surface": "asphalt",
		"commentaire": "Permet d'éviter des itinéraires plus long et plus dénivelés en sortant du Lycée Dautry. Largeur suffisante."
      },
      "geometry": {
        "type": "LineString",
        "coordinates": [
          [
            1.2748519,
            45.8402137
          ],
          [
            1.2748901,
            45.8401813
          ],
          [
            1.2768953,
            45.8384104
          ],
          [
            1.276937,
            45.8383644
          ]
        ]
      },
      "id": "way/31304681"
    },
    {
      "type": "Feature",
      "properties": {
        "@id": "way/481200194",
        "highway": "residential",
        "lit": "yes",
        "maxspeed:type": "FR:urban",
        "name": "Rue Rabelais",
        "oneway": "yes",
        "source": "cadastre-dgi-fr source : Direction Générale des Impôts - Cadastre ; mise à jour : 2009",
        "surface": "asphalt",
		"commentaire": "Permet d'éviter des itinéraires plus long et plus dénivelés en sortant du Lycée Dautry. Largeur suffisante."
      },
      "geometry": {
        "type": "LineString",
        "coordinates": [
          [
            1.276937,
            45.8383644
          ],
          [
            1.2770227,
            45.8382697
          ],
          [
            1.2772056,
            45.8382405
          ]
        ]
      },
      "id": "way/481200194"
    },
    {
      "type": "Feature",
      "properties": {
        "@id": "way/31092395",
        "highway": "unclassified",
        "name": "Rue Martial Pradet",
        "oneway": "yes",
        "source": "cadastre-dgi-fr source : Direction Générale des Impôts - Cadastre ; mise à jour : 2009",
        "surface": "asphalt",
		"commentaire": "Permet d'éviter des détours avec beaucoup de circulation pour rejoindre av Garibaldi"
      },
      "geometry": {
        "type": "LineString",
        "coordinates": [
          [
            1.2600001,
            45.8387985
          ],
          [
            1.2598859,
            45.8387693
          ],
          [
            1.2592871,
            45.8386033
          ],
          [
            1.2586946,
            45.8384411
          ],
          [
            1.2586633,
            45.8384326
          ],
          [
            1.2586189,
            45.8384204
          ]
        ]
      },
      "id": "way/31092395"
    },
    {
      "type": "Feature",
      "properties": {
        "@id": "way/416523187",
        "cycleway:both": "no",
        "highway": "unclassified",
        "name": "Rue Martial Pradet",
        "oneway": "yes",
        "source": "cadastre-dgi-fr source : Direction Générale des Impôts - Cadastre ; mise à jour : 2009",
        "surface": "asphalt",
		"commentaire": "Permet d'éviter des détours avec beaucoup de circulation pour rejoindre av Garibaldi"
      },
      "geometry": {
        "type": "LineString",
        "coordinates": [
          [
            1.2600001,
            45.8387985
          ],
          [
            1.2600678,
            45.8388184
          ],
          [
            1.2606476,
            45.8389886
          ],
          [
            1.2609296,
            45.8390278
          ]
        ]
      },
      "id": "way/416523187"
    },
	{
      "type": "Feature",
      "properties": {
        "@id": "way/31097959",
        "highway": "unclassified",
        "name": "Rue du Lavoir",
        "oneway": "yes",
        "source": "cadastre-dgi-fr source : Direction Générale des Impôts - Cadastre ; mise à jour : 2009",
        "surface": "asphalt",
		"commentaire": "Permet d'éviter des détours avec beaucoup de circulation pour rejoindre av Garibaldi"
      },
      "geometry": {
        "type": "LineString",
        "coordinates": [
          [
            1.2589098,
            45.8379293
          ],
          [
            1.2589563,
            45.8379659
          ],
          [
            1.259477,
            45.8383649
          ]
        ]
      },
      "id": "way/31097959"
    },
	{
      "type": "Feature",
      "properties": {
        "@id": "way/31097899",
        "cycleway:right": "lane",
        "highway": "residential",
        "lit": "yes",
        "name": "Rue Hoche",
        "oneway": "yes",
        "source": "cadastre-dgi-fr source : Direction Générale des Impôts - Cadastre ; mise à jour : 2009",
        "surface": "asphalt",
		"commentaire": "Largeur plus que suffisante et accès au magasin bio"
      },
      "geometry": {
        "type": "LineString",
        "coordinates": [
          [
            1.2594545,
            45.8395118
          ],
          [
            1.25946,
            45.8395865
          ],
          [
            1.2594637,
            45.8396335
          ],
          [
            1.2593395,
            45.8398337
          ],
          [
            1.2590532,
            45.8402952
          ]
        ]
      },
      "id": "way/31097899"
    },
    {
      "type": "Feature",
      "properties": {
        "@id": "way/31097952",
        "cycleway:both": "no",
        "highway": "unclassified",
        "name": "Rue Hoche",
        "oneway": "yes",
        "source": "cadastre-dgi-fr source : Direction Générale des Impôts - Cadastre ; mise à jour : 2009",
        "surface": "asphalt",
		"commentaire": "Largeur plus que suffisante et accès au magasin bio"
      },
      "geometry": {
        "type": "LineString",
        "coordinates": [
          [
            1.2598253,
            45.8393932
          ],
          [
            1.2596885,
            45.8392572
          ],
          [
            1.2599681,
            45.8388456
          ],
          [
            1.2600001,
            45.8387985
          ],
          [
            1.2608396,
            45.8373176
          ],
          [
            1.2608599,
            45.8372818
          ],
          [
            1.2608766,
            45.8372523
          ]
        ]
      },
      "id": "way/31097952"
    },
    {
      "type": "Feature",
      "properties": {
        "@id": "way/416523186",
        "cycleway:right": "lane",
        "highway": "residential",
        "lit": "yes",
        "name": "Rue Hoche",
        "oneway": "yes",
        "source": "cadastre-dgi-fr source : Direction Générale des Impôts - Cadastre ; mise à jour : 2009",
        "surface": "asphalt",
		"commentaire": "Largeur plus que suffisante et accès au magasin bio"
      },
      "geometry": {
        "type": "LineString",
        "coordinates": [
          [
            1.2590532,
            45.8402952
          ],
          [
            1.2590378,
            45.8403227
          ],
          [
            1.2587166,
            45.8408983
          ],
          [
            1.258394,
            45.8414322
          ],
          [
            1.2583559,
            45.8414849
          ]
        ]
      },
      "id": "way/416523186"
    },
	{
      "type": "Feature",
      "properties": {
        "@id": "way/31099025",
        "cycleway:right": "shared_lane",
        "highway": "residential",
        "maxspeed": "50",
        "name": "Rue de Lostende",
        "oneway": "yes",
        "source": "cadastre-dgi-fr source : Direction Générale des Impôts - Cadastre ; mise à jour : 2009",
		"commentaire": "pour récupérer l'Avenue de Louyat en venant de Lucien Faure"
      },
      "geometry": {
        "type": "LineString",
        "coordinates": [
          [
            1.2587541,
            45.8444419
          ],
          [
            1.2588498,
            45.844257
          ],
          [
            1.2591024,
            45.8440625
          ],
          [
            1.2591625,
            45.8440163
          ],
          [
            1.2592961,
            45.843967
          ],
          [
            1.259442,
            45.8439133
          ],
          [
            1.2594888,
            45.8439073
          ],
          [
            1.2595325,
            45.8438999
          ],
          [
            1.259599,
            45.8438932
          ]
        ]
      },
      "id": "way/31099025"
    },
    {
      "type": "Feature",
      "properties": {
        "@id": "way/587893441",
        "cycleway:right": "shared_lane",
        "highway": "residential",
        "maxspeed": "30",
        "name": "Rue de Lostende",
        "oneway": "yes",
        "source": "cadastre-dgi-fr source : Direction Générale des Impôts - Cadastre ; mise à jour : 2009",
        "source:maxspeed": "FR:zone30",
		"commentaire": "pour récupérer l'Avenue de Louyat en venant de Lucien Faure"
      },
      "geometry": {
        "type": "LineString",
        "coordinates": [
          [
            1.2588966,
            45.8457503
          ],
          [
            1.2588633,
            45.8457123
          ],
          [
            1.2587996,
            45.8456465
          ],
          [
            1.258756,
            45.8444918
          ],
          [
            1.2587541,
            45.8444419
          ]
        ]
      },
      "id": "way/587893441"
    },
	{
      "type": "Feature",
      "properties": {
        "@id": "way/31097992",
        "highway": "residential",
        "name": "Rue du Crucifix",
        "oneway": "yes",
        "source": "cadastre-dgi-fr source : Direction Générale des Impôts - Cadastre ; mise à jour : 2009",
        "surface": "asphalt",
		"commentaire": "Permet d'éviter des détours importants en venant de la zone commerciale"
      },
      "geometry": {
        "type": "LineString",
        "coordinates": [
          [
            1.2568858,
            45.8397835
          ],
          [
            1.2568379,
            45.8398111
          ],
          [
            1.2567536,
            45.8398347
          ],
          [
            1.2557133,
            45.8401252
          ],
          [
            1.2556171,
            45.8401521
          ],
          [
            1.2555719,
            45.8401664
          ],
          [
            1.2554238,
            45.8402064
          ],
          [
            1.2544034,
            45.8404819
          ],
          [
            1.2543522,
            45.8404923
          ]
        ]
      },
      "id": "way/31097992"
    },
	{
      "type": "Feature",
      "properties": {
        "@id": "way/313057888",
        "cycleway:right": "shared_lane",
        "highway": "residential",
        "name": "Rue Malesherbes",
        "oneway": "yes",
        "source": "cadastre-dgi-fr source : Direction Générale des Impôts - Cadastre;mise à jour : 2009",
		"commentaire": "Permet d'éviter Aristide Briand"
      },
      "geometry": {
        "type": "LineString",
        "coordinates": [
          [
            1.2678776,
            45.8391849
          ],
          [
            1.2679259,
            45.8392354
          ],
          [
            1.2689095,
            45.8400517
          ],
          [
            1.2689599,
            45.8400882
          ],
          [
            1.2690009,
            45.8400937
          ],
          [
            1.2690549,
            45.840097
          ]
        ]
      },
      "id": "way/313057888"
    },
	{
      "type": "Feature",
      "properties": {
        "@id": "way/385108823",
        "highway": "unclassified",
        "name": "Rue de New York",
        "oneway": "yes",
        "source": "cadastre-dgi-fr source : Direction Générale des Impôts - Cadastre. Mise à jour : 2009",
		"commentaire": "largeur suffisante, accès à l'école et au gymnase"
      },
      "geometry": {
        "type": "LineString",
        "coordinates": [
          [
            1.2492997,
            45.8417724
          ],
          [
            1.2492074,
            45.8417557
          ],
          [
            1.2483592,
            45.8416024
          ],
          [
            1.2479507,
            45.8415286
          ],
          [
            1.2473779,
            45.8414251
          ],
          [
            1.2473175,
            45.8414142
          ],
          [
            1.2471013,
            45.8413751
          ]
        ]
      },
      "id": "way/385108823"
    },
	{
      "type": "Feature",
      "properties": {
        "@id": "way/31301626",
        "highway": "residential",
        "lit": "yes",
        "name": "Rue de la Brasserie",
        "oneway": "yes",
        "source": "cadastre-dgi-fr source : Direction Générale des Impôts - Cadastre ; mise à jour : 2009",
        "surface": "asphalt",
		"commentaire": "permet de s'affranchir d'emprunter la rue François Perrin en empruntant l'une ou l'autre des rues"
      },
      "geometry": {
        "type": "LineString",
        "coordinates": [
          [
            1.2434172,
            45.8288996
          ],
          [
            1.2434029,
            45.8288274
          ],
          [
            1.2429528,
            45.8265583
          ],
          [
            1.2429472,
            45.8265298
          ],
          [
            1.2429428,
            45.8265077
          ]
        ]
      },
      "id": "way/31301626"
    },
	{
      "type": "Feature",
      "properties": {
        "@id": "way/31091634",
        "highway": "residential",
        "lit": "yes",
        "maxspeed:type": "FR:urban",
        "name": "Rue de Rochechouart",
        "oneway": "yes",
        "surface": "asphalt",
		"commentaire": "permet de s'affranchir d'emprunter la rue François Perrin en empruntant l'une ou l'autre des rues"
      },
      "geometry": {
        "type": "LineString",
        "coordinates": [
          [
            1.244085,
            45.8263047
          ],
          [
            1.2440964,
            45.8263463
          ],
          [
            1.2444232,
            45.8280114
          ],
          [
            1.2444725,
            45.8282532
          ],
          [
            1.2446685,
            45.8292761
          ],
          [
            1.244729,
            45.8293615
          ]
        ]
      },
      "id": "way/31091634"
    },
	{
      "type": "Feature",
      "properties": {
        "@id": "way/31092369",
        "cycleway:both": "no",
        "highway": "unclassified",
        "maxspeed:type": "FR:urban",
        "name": "Rue de la Boetie",
        "oneway": "yes",
        "source": "cadastre-dgi-fr source : Direction Générale des Impôts - Cadastre;mise à jour : 2009",
        "surface": "asphalt",
		"commentaire": "suffisamment large, permet d'éviter le Carrefour du 8 mai"
      },
      "geometry": {
        "type": "LineString",
        "coordinates": [
          [
            1.248242,
            45.8351809
          ],
          [
            1.2481667,
            45.8352175
          ],
          [
            1.2468696,
            45.835028
          ]
        ]
      },
      "id": "way/31092369"
    },
	{
      "type": "Feature",
      "properties": {
        "@id": "way/643146739",
        "cycleway:right": "shared_lane",
        "highway": "residential",
        "lit": "yes",
        "maxspeed:type": "FR:urban",
        "name": "Rue du Petit Tour",
        "oneway": "yes",
        "surface": "asphalt",
		"commentaire": "permet d'éviter le détour dangereux avec plusieurs voie voitures par la Mauvendière et l'Amphitéathre lorsqu'on veut rejoindre les Carmes en venant du Nord (accès aux Lycées Turgot et Valadon)"
      },
      "geometry": {
        "type": "LineString",
        "coordinates": [
          [
            1.2494821,
            45.8302018
          ],
          [
            1.2494683,
            45.8302527
          ],
          [
            1.2493089,
            45.8307782
          ]
        ]
      },
      "id": "way/643146739"
    },
	{
      "type": "Feature",
      "properties": {
        "@id": "way/31097876",
        "highway": "secondary",
        "maxspeed": "50",
        "name": "Rue Montmailler",
        "oneway": "yes",
        "source": "cadastre-dgi-fr source : Direction Générale des Impôts - Cadastre;mise à jour : 2009",
        "surface": "asphalt",
		"commentaire": "Nous ne savons toujours pas ce qui est prévu!"
      },
      "geometry": {
        "type": "LineString",
        "coordinates": [
          [
            1.2556395,
            45.8329656
          ],
          [
            1.255536,
            45.8330341
          ],
          [
            1.2548393,
            45.8333449
          ],
          [
            1.2546706,
            45.8334573
          ],
          [
            1.2546294,
            45.8334841
          ],
          [
            1.2543644,
            45.8336751
          ],
          [
            1.2541429,
            45.8338483
          ],
          [
            1.2540664,
            45.8339094
          ],
          [
            1.2538152,
            45.8341224
          ],
          [
            1.2537218,
            45.8342019
          ],
          [
            1.25354,
            45.8343404
          ],
          [
            1.2528177,
            45.8348175
          ],
          [
            1.2523183,
            45.8350945
          ],
          [
            1.2522135,
            45.8351618
          ]
        ]
      },
      "id": "way/31097876"
    },
	{
      "type": "Feature",
      "properties": {
        "@id": "way/31091620",
        "cycleway:both": "no",
        "highway": "unclassified",
        "maxspeed": "50",
        "maxspeed:type": "sign",
        "name": "Rue des Anglais",
        "oneway": "yes",
        "source": "cadastre-dgi-fr source : Direction Générale des Impôts - Cadastre;mise à jour : 2009",
        "surface": "asphalt"
      },
      "geometry": {
        "type": "LineString",
        "coordinates": [
          [
            1.2546706,
            45.8334573
          ],
          [
            1.2546348,
            45.833407
          ],
          [
            1.2544119,
            45.8330488
          ],
          [
            1.2542824,
            45.8328106
          ],
          [
            1.2543012,
            45.8325739
          ],
          [
            1.254589,
            45.8320167
          ]
        ]
      },
      "id": "way/31091620"
    },
	{
      "type": "Feature",
      "properties": {
        "@id": "way/28143949",
        "highway": "residential",
        "lit": "yes",
        "maxspeed": "30",
        "maxspeed:type": "FR:zone30",
        "name": "Rue d'Aguesseau",
        "oneway": "yes",
        "surface": "asphalt",
		"commentaire": "Permet d'éviter le contournement délicat des halles"
      },
      "geometry": {
        "type": "LineString",
        "coordinates": [
          [
            1.2550513,
            45.8297545
          ],
          [
            1.2551761,
            45.8297278
          ],
          [
            1.2561704,
            45.8294224
          ]
        ]
      },
      "id": "way/28143949"
    },
	{
      "type": "Feature",
      "properties": {
        "@id": "way/25308696",
        "cycleway:both": "no",
        "highway": "residential",
        "lit": "yes",
        "maxspeed": "30",
        "maxspeed:type": "FR:zone30",
        "name": "Rue des Combes",
        "oneway": "yes",
        "sidewalk": "both",
        "surface": "asphalt",
		"commentaire": "Permet d'éviter l'avenue de la Libération"
      },
      "geometry": {
        "type": "LineString",
        "coordinates": [
          [
            1.2558631,
            45.8328231
          ],
          [
            1.255988,
            45.8327721
          ],
          [
            1.2561742,
            45.8326988
          ],
          [
            1.2568224,
            45.8324208
          ],
          [
            1.2570995,
            45.8323119
          ],
          [
            1.2571838,
            45.8322667
          ],
          [
            1.2572761,
            45.8322399
          ],
          [
            1.2573966,
            45.8322122
          ],
          [
            1.25797,
            45.8321678
          ]
        ]
      },
      "id": "way/25308696"
    },
    {
      "type": "Feature",
      "properties": {
        "@id": "way/443773794",
        "highway": "living_street",
        "lit": "yes",
        "name": "Rue des Combes",
        "oneway": "yes",
        "sidewalk": "both",
        "surface": "asphalt",
		"commentaire": "Permet d'éviter l'avenue de la Libération"
      },
      "geometry": {
        "type": "LineString",
        "coordinates": [
          [
            1.25797,
            45.8321678
          ],
          [
            1.2581005,
            45.8321575
          ],
          [
            1.2582611,
            45.8321194
          ]
        ]
      },
      "id": "way/443773794"
    },
	{
      "type": "Feature",
      "properties": {
        "@id": "way/28574447",
        "highway": "residential",
        "lanes": "1",
        "lit": "yes",
        "maxspeed": "30",
        "name": "Rue Jules Guesde",
        "oneway": "yes",
        "source:maxspeed": "FR:zone30",
        "surface": "asphalt",
		"commentaire": "évite des détours importants. Largeur sufisante"
      },
      "geometry": {
        "type": "LineString",
        "coordinates": [
          [
            1.260923,
            45.8294037
          ],
          [
            1.2614643,
            45.8295045
          ],
          [
            1.2625279,
            45.8296934
          ]
        ]
      },
      "id": "way/28574447"
    },
	{
      "type": "Feature",
      "properties": {
        "@id": "way/41083623",
        "highway": "residential",
        "lit": "yes",
        "maxspeed": "50",
        "maxspeed:type": "sign",
        "name": "Rue Jeanty Sarre",
        "oneway": "yes",
        "sidewalk": "both",
        "source": "cadastre-dgi-fr source : Direction Générale des Impôts - Cadastre ; mise à jour : 2009",
        "surface": "asphalt",
		"commentaire": "évite des détours importants. Largeur sufisante"
      },
      "geometry": {
        "type": "LineString",
        "coordinates": [
          [
            1.2599029,
            45.8292529
          ],
          [
            1.2600415,
            45.8292669
          ],
          [
            1.2608891,
            45.8294358
          ]
        ]
      },
      "id": "way/41083623"
    },
	{
      "type": "Feature",
      "properties": {
        "@id": "way/41083622",
        "highway": "residential",
        "lit": "yes",
        "maxspeed": "30",
        "maxspeed:type": "FR:zone30",
        "name": "Rue Elie Berthet",
        "oneway": "yes",
        "sidewalk": "both",
        "source": "cadastre-dgi-fr source : Direction Générale des Impôts - Cadastre ; mise à jour : 2009",
        "surface": "asphalt",
		"commentaire": "évite des détours importants. Largeur sufisante"
      },
      "geometry": {
        "type": "LineString",
        "coordinates": [
          [
            1.258724,
            45.8289179
          ],
          [
            1.2588309,
            45.828979
          ],
          [
            1.2591598,
            45.8291373
          ],
          [
            1.2598224,
            45.8292404
          ],
          [
            1.2599029,
            45.8292529
          ]
        ]
      },
      "id": "way/41083622"
    },
	{
      "type": "Feature",
      "properties": {
        "@id": "way/28574467",
        "cycleway:both": "no",
        "highway": "unclassified",
        "lanes": "1",
        "maxspeed": "30",
        "name": "Rue Fourie",
        "oneway": "yes",
        "source:maxspeed": "FR:zone30",
        "surface": "asphalt",
		"commentaire": "Elle gagnerait à être fermée aux automobiles"
      },
      "geometry": {
        "type": "LineString",
        "coordinates": [
          [
            1.2608844,
            45.8307445
          ],
          [
            1.2599421,
            45.8303829
          ]
        ]
      },
      "id": "way/28574467"
    },
	{
      "type": "Feature",
      "properties": {
        "@id": "way/80736997",
        "cycleway:both": "no",
        "highway": "unclassified",
        "lanes": "1",
        "maxspeed": "30",
        "name": "Rue de la Courtine",
        "oneway": "yes",
        "source": "cadastre-dgi-fr source : Direction Générale des Impôts - Cadastre ; mise à jour : 2010",
        "source:maxspeed": "FR:zone30",
        "surface": "asphalt",
		"commentaire": "Elle gagnerait à être fermée aux automobiles"
      },
      "geometry": {
        "type": "LineString",
        "coordinates": [
          [
            1.2596154,
            45.8307013
          ],
          [
            1.2604384,
            45.8311256
          ]
        ]
      },
      "id": "way/80736997"
    },
	{
      "type": "Feature",
      "properties": {
        "@id": "way/28436888",
        "highway": "unclassified",
        "maxspeed": "50",
        "maxspeed:type": "sign",
        "name": "Rue du 71ième Mobiles",
        "oneway": "yes",
        "ref:FR:FANTOIR": "870854905D",
        "surface": "asphalt",
		"commentaire": "permettrait d'éviter les grandes avenues. pourrait être libérée de l'automobile en passant la rue de Maupas en double sens"
      },
      "geometry": {
        "type": "LineString",
        "coordinates": [
          [
            1.2641161,
            45.83158
          ],
          [
            1.2645698,
            45.8307897
          ],
          [
            1.2648632,
            45.8303126
          ],
          [
            1.2648876,
            45.8302708
          ],
          [
            1.264901,
            45.8302424
          ]
        ]
      },
      "id": "way/28436888"
    },
	{
      "type": "Feature",
      "properties": {
        "@id": "way/28436882",
        "highway": "unclassified",
        "name": "Rue des Tanneries",
        "oneway": "yes",
        "surface": "asphalt",
		"commentaire": "permettrait d'éviter les grandes avenues + pôle générateur pour le vélo (V'Lim, La Clé à Paulette)"
      },
      "geometry": {
        "type": "LineString",
        "coordinates": [
          [
            1.2628845,
            45.8300316
          ],
          [
            1.2630114,
            45.8300107
          ],
          [
            1.263047,
            45.8300143
          ],
          [
            1.2630907,
            45.8300362
          ],
          [
            1.2634609,
            45.8303179
          ],
          [
            1.2635021,
            45.8303492
          ],
          [
            1.2636799,
            45.8304878
          ],
          [
            1.2637704,
            45.8305421
          ],
          [
            1.2638996,
            45.8305932
          ],
          [
            1.2645698,
            45.8307897
          ],
          [
            1.2648459,
            45.8309944
          ],
          [
            1.2650641,
            45.8310945
          ]
        ]
      },
      "id": "way/28436882"
    },
	{
      "type": "Feature",
      "properties": {
        "@id": "way/429347207",
        "bicycle": "yes",
        "foot": "yes",
        "highway": "living_street",
        "lit": "yes",
        "maxspeed": "50",
        "name": "Rue Porte Panet",
        "oneway": "yes",
        "source": "cadastre-dgi-fr source : Direction Générale des Impôts - Cadastre ; mise à jour : 2009",
        "surface": "asphalt",
		"commentaire": "Oblige a des détours compliqués et avec dénivelé. La circulation automobile gagnerait à être plus réglementée pour laisser la place aux vélos et aux piétons dans ces quartiers historiques."
      },
      "geometry": {
        "type": "LineString",
        "coordinates": [
          [
            1.266754,
            45.8292406
          ],
          [
            1.2668792,
            45.829235
          ],
          [
            1.2671631,
            45.8293006
          ],
          [
            1.2678739,
            45.8296196
          ],
          [
            1.2682614,
            45.830042
          ]
        ]
      },
      "id": "way/429347207"
    },
	{
      "type": "Feature",
      "properties": {
        "@id": "way/28436879",
        "highway": "living_street",
        "lit": "yes",
        "maxspeed": "20",
        "name": "Rue Neuve Saint-Étienne",
        "oneway": "yes",
        "surface": "asphalt"
      },
      "geometry": {
        "type": "LineString",
        "coordinates": [
          [
            1.2654509,
            45.8306427
          ],
          [
            1.2659107,
            45.8301191
          ],
          [
            1.2663192,
            45.8294779
          ]
        ]
      },
      "id": "way/28436879"
    },
	{
      "type": "Feature",
      "properties": {
        "@id": "way/28436869",
        "highway": "living_street",
        "name": "Rue de la Cathédrale",
        "oneway": "yes",
        "surface": "sett"
      },
      "geometry": {
        "type": "LineString",
        "coordinates": [
          [
            1.2652206,
            45.8282947
          ],
          [
            1.2645058,
            45.827972
          ],
          [
            1.2643916,
            45.8279204
          ]
        ]
      },
      "id": "way/28436869"
    },
	{
      "type": "Feature",
      "properties": {
        "@id": "way/28436868",
        "highway": "residential",
        "lit": "yes",
        "maxspeed": "50",
        "name": "Avenue Gabriel Péri",
        "oneway": "yes",
        "source:maxspeed": "sign",
        "surface": "asphalt",
		"commentaire": "Permet d'éviter les grandes avenues"
      },
      "geometry": {
        "type": "LineString",
        "coordinates": [
          [
            1.2643456,
            45.8266417
          ],
          [
            1.2642863,
            45.8267244
          ],
          [
            1.2638555,
            45.8272163
          ],
          [
            1.2636379,
            45.8274701
          ],
          [
            1.2635604,
            45.8275502
          ]
        ]
      },
      "id": "way/28436868"
    },
    {
      "type": "Feature",
      "properties": {
        "@id": "way/483945193",
        "highway": "residential",
        "lit": "yes",
        "maxspeed": "50",
        "name": "Avenue Gabriel Péri",
        "oneway": "yes",
        "surface": "asphalt",
		"commentaire": "Permet d'éviter les grandes avenues"
      },
      "geometry": {
        "type": "LineString",
        "coordinates": [
          [
            1.2621467,
            45.8290729
          ],
          [
            1.2622183,
            45.8289952
          ],
          [
            1.2626386,
            45.8285464
          ],
          [
            1.2626701,
            45.8285084
          ]
        ]
      },
      "id": "way/483945193"
    },
	{
      "type": "Feature",
      "properties": {
        "@id": "way/29982460",
        "highway": "residential",
        "lit": "yes",
        "maxspeed:type": "FR:urban",
        "name": "Rue du Pont Saint-Martial",
        "oneway": "yes",
        "ref:FR:FANTOIR": "870854255X",
        "surface": "asphalt",
		"commentaire": "permet de rejoindre la ville en venant du pont St Martial en évitant les grandes avenues. Accès à l'école et au restaurant universitaire"
      },
      "geometry": {
        "type": "LineString",
        "coordinates": [
          [
            1.2621562,
            45.8256535
          ],
          [
            1.2624008,
            45.8254286
          ],
          [
            1.262604,
            45.8252246
          ],
          [
            1.2626528,
            45.8251617
          ],
          [
            1.2628957,
            45.8247344
          ],
          [
            1.2629847,
            45.8245175
          ],
          [
            1.2631127,
            45.8238378
          ],
          [
            1.2632762,
            45.8229491
          ],
          [
            1.2632858,
            45.8229201
          ],
          [
            1.2634343,
            45.8227469
          ],
          [
            1.2636116,
            45.8225154
          ],
          [
            1.2638505,
            45.8222363
          ],
          [
            1.2639218,
            45.8221779
          ],
          [
            1.2640508,
            45.8219854
          ],
          [
            1.2641024,
            45.8219083
          ]
        ]
      },
      "id": "way/29982460"
    },
	{
      "type": "Feature",
      "properties": {
        "@id": "way/27241544",
        "highway": "residential",
        "name": "Rue des Soeurs de la Rivière",
        "oneway": "yes",
		"commentaire": "Accès au collège sans passer par les boulevards"
      },
      "geometry": {
        "type": "LineString",
        "coordinates": [
          [
            1.266208,
            45.8232952
          ],
          [
            1.2661287,
            45.8233135
          ],
          [
            1.2660643,
            45.8233528
          ],
          [
            1.2657854,
            45.8236818
          ],
          [
            1.2654993,
            45.8240313
          ],
          [
            1.2653182,
            45.8242221
          ],
          [
            1.265201,
            45.8243338
          ],
          [
            1.2648376,
            45.8246272
          ],
          [
            1.2642859,
            45.8251
          ],
          [
            1.2640367,
            45.8253858
          ],
          [
            1.2639626,
            45.8254609
          ],
          [
            1.2637262,
            45.8257538
          ],
          [
            1.2634761,
            45.8261033
          ],
          [
            1.2633793,
            45.8262396
          ],
          [
            1.2633522,
            45.8262734
          ],
          [
            1.2633326,
            45.8263011
          ],
          [
            1.2632728,
            45.8262887
          ],
          [
            1.2631696,
            45.8262808
          ],
          [
            1.2630708,
            45.8262469
          ],
          [
            1.2627948,
            45.8261172
          ]
        ]
      },
      "id": "way/27241544"
    },
	{
      "type": "Feature",
      "properties": {
        "@id": "way/273679415",
        "highway": "tertiary",
        "name": "Rue d'Auzette",
        "oneway": "yes",
        "surface": "asphalt",
		"commentaire": "aucune contrainte à autoriser le DSC, facilite l'accès aux bords de Vienne"
      },
      "geometry": {
        "type": "LineString",
        "coordinates": [
          [
            1.2703351,
            45.8241626
          ],
          [
            1.2703418,
            45.8241925
          ],
          [
            1.2704108,
            45.8245888
          ],
          [
            1.2705806,
            45.8254388
          ],
          [
            1.270593,
            45.8255005
          ],
          [
            1.2706161,
            45.8256157
          ]
        ]
      },
      "id": "way/273679415"
    },
	{
      "type": "Feature",
      "properties": {
        "@id": "way/44134928",
        "highway": "tertiary",
        "name": "Rue des Carriers",
        "oneway": "yes",
        "ref:FR:FANTOIR": "870850880D",
        "source": "cadastre-dgi-fr source : Direction Générale des Impôts - Cadastre ; mise à jour : 2009",
        "surface": "asphalt",
		"commentaire": "aucune contrainte à autoriser le DSC, facilite l'accès aux bords de Vienne"
      },
      "geometry": {
        "type": "LineString",
        "coordinates": [
          [
            1.2724234,
            45.8252958
          ],
          [
            1.272369,
            45.825218
          ],
          [
            1.2721648,
            45.8249496
          ],
          [
            1.2715689,
            45.8243466
          ],
          [
            1.2713388,
            45.8242148
          ],
          [
            1.2711566,
            45.8241196
          ],
          [
            1.2711151,
            45.8241012
          ],
          [
            1.2710805,
            45.8240917
          ],
          [
            1.2710423,
            45.8240888
          ],
          [
            1.2709774,
            45.8240933
          ],
          [
            1.2708045,
            45.8241117
          ],
          [
            1.2704518,
            45.8241439
          ],
          [
            1.2704008,
            45.8241509
          ],
          [
            1.2703351,
            45.8241626
          ]
        ]
      },
      "id": "way/44134928"
    },
	{
      "type": "Feature",
      "properties": {
        "@id": "way/45515657",
        "highway": "living_street",
        "lit": "no",
        "name": "Rue Raspail",
        "oneway": "yes",
        "source": "cadastre-dgi-fr source : Direction Générale des Impôts - Cadastre ; mise à jour : 2009",
        "surface": "asphalt"
      },
      "geometry": {
        "type": "LineString",
        "coordinates": [
          [
            1.2637111,
            45.8289929
          ],
          [
            1.2629672,
            45.8295901
          ]
        ]
      },
      "id": "way/45515657"
    },
    {
      "type": "Feature",
      "properties": {
        "@id": "way/442794758",
        "highway": "residential",
        "lit": "yes",
        "maxspeed": "50",
        "maxspeed:type": "sign",
        "name": "Rue Raspail",
        "oneway": "yes",
        "sidewalk": "both",
        "source": "BDOrtho IGN 2016",
        "surface": "asphalt"
      },
      "geometry": {
        "type": "LineString",
        "coordinates": [
          [
            1.2627695,
            45.8298646
          ],
          [
            1.2628813,
            45.8298132
          ],
          [
            1.2629268,
            45.8297641
          ],
          [
            1.2629396,
            45.8297132
          ],
          [
            1.2629108,
            45.8296664
          ],
          [
            1.2628906,
            45.8296356
          ]
        ]
      },
      "id": "way/442794758"
    },
    {
      "type": "Feature",
      "properties": {
        "@id": "way/442794760",
        "highway": "residential",
        "lit": "yes",
        "name": "Rue Raspail",
        "oneway": "yes",
        "sidewalk": "both",
        "source": "cadastre-dgi-fr source : Direction Générale des Impôts - Cadastre ; mise à jour : 2009",
        "surface": "concrete"
      },
      "geometry": {
        "type": "LineString",
        "coordinates": [
          [
            1.2629672,
            45.8295901
          ],
          [
            1.2628906,
            45.8296356
          ]
        ]
      },
      "id": "way/442794760"
    },
    {
      "type": "Feature",
      "properties": {
        "@id": "way/578169834",
        "highway": "residential",
        "lit": "yes",
        "maxspeed": "50",
        "maxspeed:type": "sign",
        "name": "Rue Raspail",
        "oneway": "yes",
        "sidewalk": "both",
        "source": "BDOrtho IGN 2016",
        "surface": "asphalt"
      },
      "geometry": {
        "type": "LineString",
        "coordinates": [
          [
            1.2628906,
            45.8296356
          ],
          [
            1.2628122,
            45.8295697
          ],
          [
            1.2627297,
            45.8295361
          ],
          [
            1.2626875,
            45.8295464
          ],
          [
            1.2625464,
            45.8296083
          ]
        ]
      },
      "id": "way/578169834"
    },
	{
      "type": "Feature",
      "properties": {
        "@id": "way/442794756",
        "highway": "residential",
        "name": "Rue Pierre Leroux",
        "oneway": "yes"
      },
      "geometry": {
        "type": "LineString",
        "coordinates": [
          [
            1.253751,
            45.8334642
          ],
          [
            1.2543015,
            45.8336462
          ],
          [
            1.254327,
            45.8336593
          ],
          [
            1.2543644,
            45.8336751
          ]
        ]
      },
      "id": "way/442794756"
    },
	{
      "type": "Feature",
      "properties": {
        "@id": "way/25308675",
        "cycleway:both": "no",
        "highway": "residential",
        "lit": "yes",
        "maxspeed": "50",
        "maxspeed:type": "sign",
        "name": "Place Winston Churchill",
        "oneway": "yes",
        "oneway:bus": "no",
        "surface": "asphalt",
        "trolley_wire": "yes",
		"commentaire": "Les cyclistes s'accommodent des sens uniques en empruntant les trottoirs. Est-ce normal?"
      },
      "geometry": {
        "type": "LineString",
        "coordinates": [
          [
            1.251796,
            45.8327
          ],
          [
            1.2517623,
            45.8326764
          ]
        ]
      },
      "id": "way/25308675"
    },
    {
      "type": "Feature",
      "properties": {
        "@id": "way/28143974",
        "cycleway:right": "shared_lane",
        "highway": "secondary",
        "lit": "yes",
        "maxspeed": "50",
        "name": "Place Winston Churchill",
        "oneway": "yes",
        "oneway:bicycle": "yes",
        "sidewalk": "right",
        "surface": "asphalt",
        "trolley_wire": "yes",
		"commentaire": "Les cyclistes s'accommodent des sens uniques en empruntant les trottoirs. Est-ce normal?"
      },
      "geometry": {
        "type": "LineString",
        "coordinates": [
          [
            1.2524536,
            45.8313093
          ],
          [
            1.2526982,
            45.831233
          ],
          [
            1.2527482,
            45.8312137
          ]
        ]
      },
      "id": "way/28143974"
    },
    {
      "type": "Feature",
      "properties": {
        "@id": "way/28144565",
        "highway": "secondary",
        "maxspeed": "50",
        "name": "Place Winston Churchill",
        "oneway": "yes",
        "surface": "asphalt",
        "trolley_wire": "yes"
      },
      "geometry": {
        "type": "LineString",
        "coordinates": [
          [
            1.254415,
            45.8311246
          ],
          [
            1.2542218,
            45.8312185
          ],
          [
            1.2539178,
            45.8314122
          ]
        ]
      },
      "id": "way/28144565"
    },
    {
      "type": "Feature",
      "properties": {
        "@id": "way/231772825",
        "highway": "residential",
        "maxspeed": "50",
        "name": "Place Winston Churchill",
        "oneway": "yes",
        "surface": "asphalt",
        "trolley_wire": "yes",
		"commentaire": "Les cyclistes s'accommodent des sens uniques en empruntant les trottoirs. Est-ce normal?"
      },
      "geometry": {
        "type": "LineString",
        "coordinates": [
          [
            1.2535439,
            45.8316524
          ],
          [
            1.2533985,
            45.8317348
          ],
          [
            1.25301,
            45.8319551
          ],
          [
            1.2528073,
            45.8320809
          ],
          [
            1.2526433,
            45.8321827
          ],
          [
            1.2524992,
            45.8322722
          ],
          [
            1.2519555,
            45.8326044
          ],
          [
            1.251796,
            45.8327
          ]
        ]
      },
      "id": "way/231772825"
    },
    {
      "type": "Feature",
      "properties": {
        "@id": "way/306756209",
        "cycleway:left": "shared_lane",
        "cycleway:right": "shared_lane",
        "highway": "tertiary",
        "maxspeed": "50",
        "name": "Place Winston Churchill",
        "oneway": "yes",
        "surface": "asphalt",
        "trolley_wire": "yes",
		"commentaire": "Les cyclistes s'accommodent des sens uniques en empruntant les trottoirs. Est-ce normal?"
      },
      "geometry": {
        "type": "LineString",
        "coordinates": [
          [
            1.2509164,
            45.8320388
          ],
          [
            1.2511204,
            45.8319435
          ],
          [
            1.2523292,
            45.8313788
          ],
          [
            1.2524536,
            45.8313093
          ]
        ]
      },
      "id": "way/306756209"
    },
    {
      "type": "Feature",
      "properties": {
        "@id": "way/333790477",
        "cycleway:right": "shared_lane",
        "highway": "secondary",
        "maxspeed": "50",
        "name": "Place Winston Churchill",
        "oneway": "yes",
        "oneway:bicycle": "yes",
        "sidewalk": "right",
        "surface": "asphalt",
        "trolley_wire": "yes",
		"commentaire": "Les cyclistes s'accommodent des sens uniques en empruntant les trottoirs. Est-ce normal?"
      },
      "geometry": {
        "type": "LineString",
        "coordinates": [
          [
            1.2529123,
            45.8311636
          ],
          [
            1.2530527,
            45.8311146
          ]
        ]
      },
      "id": "way/333790477"
    },
    {
      "type": "Feature",
      "properties": {
        "@id": "way/333829129",
        "highway": "secondary",
        "maxspeed": "50",
        "name": "Place Winston Churchill",
        "oneway": "yes",
        "surface": "asphalt",
        "trolley_wire": "yes",
		"commentaire": "Les cyclistes s'accommodent des sens uniques en empruntant les trottoirs. Est-ce normal?"
      },
      "geometry": {
        "type": "LineString",
        "coordinates": [
          [
            1.2537198,
            45.8315381
          ],
          [
            1.2536849,
            45.8315603
          ],
          [
            1.2535439,
            45.8316524
          ]
        ]
      },
      "id": "way/333829129"
    },
    {
      "type": "Feature",
      "properties": {
        "@id": "way/333835780",
        "highway": "secondary",
        "maxspeed": "50",
        "name": "Place Winston Churchill",
        "oneway": "yes",
        "surface": "asphalt",
        "trolley_wire": "yes",
		"commentaire": "Les cyclistes s'accommodent des sens uniques en empruntant les trottoirs. Est-ce normal?"
      },
      "geometry": {
        "type": "LineString",
        "coordinates": [
          [
            1.2539178,
            45.8314122
          ],
          [
            1.2538147,
            45.8314778
          ]
        ]
      },
      "id": "way/333835780"
    },
    {
      "type": "Feature",
      "properties": {
        "@id": "way/333837086",
        "cycleway:right": "shared_lane",
        "highway": "secondary",
        "maxspeed": "50",
        "name": "Place Winston Churchill",
        "oneway": "yes",
        "oneway:bicycle": "yes",
        "sidewalk": "right",
        "surface": "asphalt",
        "trolley_wire": "yes",
		"commentaire": "Les cyclistes s'accommodent des sens uniques en empruntant les trottoirs. Est-ce normal?"
      },
      "geometry": {
        "type": "LineString",
        "coordinates": [
          [
            1.253289,
            45.8310396
          ],
          [
            1.253551,
            45.8309424
          ]
        ]
      },
      "id": "way/333837086"
    },
    {
      "type": "Feature",
      "properties": {
        "@id": "way/333840801",
        "cycleway:both": "no",
        "highway": "residential",
        "lit": "yes",
        "maxspeed": "50",
        "name": "Place Winston Churchill",
        "oneway": "yes",
        "surface": "asphalt",
        "trolley_wire": "yes",
		"commentaire": "Les cyclistes s'accommodent des sens uniques en empruntant les trottoirs. Est-ce normal?"
      },
      "geometry": {
        "type": "LineString",
        "coordinates": [
          [
            1.2517623,
            45.8326764
          ],
          [
            1.2510082,
            45.832111
          ],
          [
            1.2509164,
            45.8320388
          ]
        ]
      },
      "id": "way/333840801"
    },
    {
      "type": "Feature",
      "properties": {
        "@id": "way/423965741",
        "cycleway:right": "shared_lane",
        "highway": "secondary",
        "lit": "yes",
        "maxspeed": "50",
        "name": "Place Winston Churchill",
        "oneway": "yes",
        "oneway:bicycle": "yes",
        "sidewalk": "right",
        "surface": "asphalt",
        "trolley_wire": "yes",
		"commentaire": "Les cyclistes s'accommodent des sens uniques en empruntant les trottoirs. Est-ce normal?"
      },
      "geometry": {
        "type": "LineString",
        "coordinates": [
          [
            1.2527482,
            45.8312137
          ],
          [
            1.2529123,
            45.8311636
          ]
        ]
      },
      "id": "way/423965741"
    },
    {
      "type": "Feature",
      "properties": {
        "@id": "way/423965742",
        "highway": "secondary",
        "maxspeed": "50",
        "name": "Place Winston Churchill",
        "oneway": "yes",
        "surface": "asphalt",
        "trolley_wire": "yes",
		"commentaire": "Les cyclistes s'accommodent des sens uniques en empruntant les trottoirs. Est-ce normal?"
      },
      "geometry": {
        "type": "LineString",
        "coordinates": [
          [
            1.2538147,
            45.8314778
          ],
          [
            1.2537198,
            45.8315381
          ]
        ]
      },
      "id": "way/423965742"
    },
    {
      "type": "Feature",
      "properties": {
        "@id": "way/679339303",
        "cycleway:right": "shared_lane",
        "highway": "secondary",
        "maxspeed": "50",
        "name": "Place Winston Churchill",
        "oneway": "yes",
        "oneway:bicycle": "yes",
        "sidewalk": "right",
        "surface": "asphalt",
        "trolley_wire": "yes",
		"commentaire": "Les cyclistes s'accommodent des sens uniques en empruntant les trottoirs. Est-ce normal?"
      },
      "geometry": {
        "type": "LineString",
        "coordinates": [
          [
            1.2530527,
            45.8311146
          ],
          [
            1.253289,
            45.8310396
          ]
        ]
      },
      "id": "way/679339303"
    },
	{
      "type": "Feature",
      "properties": {
        "@id": "way/31092383",
        "highway": "residential",
        "lit": "yes",
        "maxspeed:type": "FR:urban",
        "name": "Rue Charles Baudelaire",
        "oneway": "yes",
        "source": "cadastre-dgi-fr source : Direction Générale des Impôts - Cadastre ; mise à jour : 2009",
        "surface": "asphalt"
      },
      "geometry": {
        "type": "LineString",
        "coordinates": [
          [
            1.2575545,
            45.8336459
          ],
          [
            1.2593852,
            45.8344989
          ]
        ]
      },
      "id": "way/31092383"
    },
	{
      "type": "Feature",
      "properties": {
        "@id": "way/31097975",
        "cycleway:both": "no",
        "highway": "unclassified",
        "name": "Rue d'Alger",
        "oneway": "yes",
        "source": "cadastre-dgi-fr source : Direction Générale des Impôts - Cadastre ; mise à jour : 2009",
        "surface": "asphalt"
      },
      "geometry": {
        "type": "LineString",
        "coordinates": [
          [
            1.2508214,
            45.8366525
          ],
          [
            1.2509227,
            45.8366
          ],
          [
            1.2514994,
            45.8362939
          ],
          [
            1.2525891,
            45.8357176
          ],
          [
            1.2526834,
            45.8356677
          ]
        ]
      },
      "id": "way/31097975"
    },
	{
      "type": "Feature",
      "properties": {
        "@id": "way/31097993",
        "highway": "residential",
        "lit": "yes",
        "maxspeed:type": "FR:urban",
        "name": "Avenue Adrien Tarrade",
        "oneway": "yes",
        "sidewalk": "both",
        "source": "cadastre-dgi-fr source : Direction Générale des Impôts - Cadastre;mise à jour : 2009",
        "surface": "asphalt",
		"commentaire": "pour éviter le dangereux rond-point Carnot"
      },
      "geometry": {
        "type": "LineString",
        "coordinates": [
          [
            1.2571809,
            45.8404678
          ],
          [
            1.2568379,
            45.8398111
          ]
        ]
      },
      "id": "way/31097993"
    },
	{
      "type": "Feature",
      "properties": {
        "@id": "way/31097885",
        "highway": "residential",
        "lit": "yes",
        "name": "Rue Victor Thuillat",
        "oneway": "yes",
        "source": "cadastre-dgi-fr source : Direction Générale des Impôts - Cadastre ; mise à jour : 2009",
        "surface": "asphalt",
		"commentaire": "permet d'éviter des détours par Labussière ou Gal Leclerc  où la circulation est dense"
      },
      "geometry": {
        "type": "LineString",
        "coordinates": [
          [
            1.256832,
            45.8431913
          ],
          [
            1.2573936,
            45.8416978
          ],
          [
            1.257419,
            45.8416425
          ],
          [
            1.2574506,
            45.8415619
          ],
          [
            1.2577838,
            45.8407111
          ],
          [
            1.257843,
            45.8406426
          ],
          [
            1.2578952,
            45.8405741
          ]
        ]
      },
      "id": "way/31097885"
    },
    {
      "type": "Feature",
      "properties": {
        "@id": "way/306213071",
        "highway": "residential",
        "name": "Rue Victor Thuillat",
        "oneway": "yes",
        "trolley_wire": "yes",
		"commentaire": "permet d'éviter des détours par Labussière ou Gal Leclerc  où la circulation est dense"
      },
      "geometry": {
        "type": "LineString",
        "coordinates": [
          [
            1.2528426,
            45.8508775
          ],
          [
            1.2528641,
            45.8510728
          ],
          [
            1.2528727,
            45.8511831
          ]
        ]
      },
      "id": "way/306213071"
    },
	{
      "type": "Feature",
      "properties": {
        "@id": "way/31092392",
        "cycleway:both": "no",
        "highway": "unclassified",
        "maxspeed:type": "FR:urban",
        "name": "Rue Encombe Vineuse",
        "oneway": "yes",
        "source": "cadastre-dgi-fr source : Direction Générale des Impôts - Cadastre ; mise à jour : 2009",
        "surface": "asphalt",
		"commentaire": "Permet de contourner le rond-point Carnot"
      },
      "geometry": {
        "type": "LineString",
        "coordinates": [
          [
            1.2553267,
            45.838961
          ],
          [
            1.2553604,
            45.838926
          ],
          [
            1.2558362,
            45.8385092
          ],
          [
            1.2566798,
            45.838209
          ]
        ]
      },
      "id": "way/31092392"
    },
	{
      "type": "Feature",
      "properties": {
        "@id": "way/31098000",
        "cycleway:both": "no",
        "highway": "unclassified",
        "lit": "yes",
        "maxspeed:type": "FR:urban",
        "name": "Rue Hyacinthe Faure",
        "oneway": "yes",
        "source": "cadastre-dgi-fr source : Direction Générale des Impôts - Cadastre ; mise à jour : 2009",
        "surface": "asphalt",
		"commentaire": "Permet de contourner le rond-point Carnot"
      },
      "geometry": {
        "type": "LineString",
        "coordinates": [
          [
            1.2557941,
            45.8408627
          ],
          [
            1.25576,
            45.8408407
          ],
          [
            1.2557365,
            45.8408113
          ],
          [
            1.2557244,
            45.8407762
          ],
          [
            1.255697,
            45.840646
          ],
          [
            1.2556063,
            45.8402983
          ],
          [
            1.2555719,
            45.8401664
          ],
          [
            1.2555472,
            45.8400472
          ],
          [
            1.2553577,
            45.8391319
          ],
          [
            1.2553267,
            45.838961
          ]
        ]
      },
      "id": "way/31098000"
    },
    {
      "type": "Feature",
      "properties": {
        "@id": "way/739626511",
        "highway": "residential",
        "lit": "yes",
        "maxspeed:type": "FR:urban",
        "name": "Rue Hyacinthe Faure",
        "oneway": "yes",
        "source": "cadastre-dgi-fr source : Direction Générale des Impôts - Cadastre;mise à jour : 2009",
        "surface": "asphalt",
		"commentaire": "Permet de contourner le rond-point Carnot"
      },
      "geometry": {
        "type": "LineString",
        "coordinates": [
          [
            1.2564186,
            45.841201
          ],
          [
            1.2563735,
            45.8411798
          ],
          [
            1.2558908,
            45.8409156
          ],
          [
            1.2557941,
            45.8408627
          ]
        ]
      },
      "id": "way/739626511"
    },
	{
      "type": "Feature",
      "properties": {
        "@id": "way/31097882",
        "highway": "residential",
        "lit": "yes",
        "maxspeed:type": "FR:urban",
        "name": "Rue Gutenberg",
        "oneway": "yes",
        "source": "cadastre-dgi-fr source : Direction Générale des Impôts - Cadastre;mise à jour : 2009",
        "surface": "asphalt",
		"commentaire": "Permet de contourner le rond-point Carnot"
      },
      "geometry": {
        "type": "LineString",
        "coordinates": [
          [
            1.2564186,
            45.841201
          ],
          [
            1.2564433,
            45.8412125
          ],
          [
            1.2569348,
            45.8414668
          ],
          [
            1.2573579,
            45.8416787
          ],
          [
            1.2573936,
            45.8416978
          ]
        ]
      },
      "id": "way/31097882"
    }
  ]
}